<?xml version="1.0" encoding="UTF-8"?>
<testng-results skipped="0" failed="0" ignored="0" total="3" passed="3">
  <reporter-output>
  </reporter-output>
  <suite name="Suite" duration-ms="14953" started-at="2021-07-23T03:03:29 IST" finished-at="2021-07-23T03:03:44 IST">
    <groups>
    </groups>
    <test name="Test" duration-ms="10426" started-at="2021-07-23T03:03:29 IST" finished-at="2021-07-23T03:03:39 IST">
      <class name="tests.HomePageTest">
        <test-method status="PASS" signature="setUp()[pri:0, instance:tests.HomePageTest@4b5d6a01]" name="setUp" is-config="true" duration-ms="8952" started-at="2021-07-23T03:03:29 IST" finished-at="2021-07-23T03:03:38 IST">
          <reporter-output>
          </reporter-output>
        </test-method> <!-- setUp -->
        <test-method status="PASS" signature="homePageValidation()[pri:0, instance:tests.HomePageTest@4b5d6a01]" name="homePageValidation" duration-ms="117" started-at="2021-07-23T03:03:38 IST" finished-at="2021-07-23T03:03:38 IST">
          <reporter-output>
          </reporter-output>
        </test-method> <!-- homePageValidation -->
        <test-method status="PASS" signature="tearDown()[pri:0, instance:tests.HomePageTest@4b5d6a01]" name="tearDown" is-config="true" duration-ms="1295" started-at="2021-07-23T03:03:38 IST" finished-at="2021-07-23T03:03:39 IST">
          <reporter-output>
          </reporter-output>
        </test-method> <!-- tearDown -->
      </class> <!-- tests.HomePageTest -->
    </test> <!-- Test -->
    <test name="Test1" duration-ms="14953" started-at="2021-07-23T03:03:29 IST" finished-at="2021-07-23T03:03:44 IST">
      <class name="tests.LoginPageTest">
        <test-method status="PASS" signature="setUp()[pri:0, instance:tests.LoginPageTest@41e36e46]" name="setUp" is-config="true" duration-ms="9190" started-at="2021-07-23T03:03:29 IST" finished-at="2021-07-23T03:03:38 IST">
          <reporter-output>
          </reporter-output>
        </test-method> <!-- setUp -->
        <test-method status="PASS" signature="validateLoginPage(java.lang.String,java.lang.String)[pri:0, instance:tests.LoginPageTest@41e36e46]" name="validateLoginPage" duration-ms="2536" started-at="2021-07-23T03:03:38 IST" data-provider="getData" finished-at="2021-07-23T03:03:40 IST">
          <params>
            <param index="0">
              <value>
                <![CDATA[dhananjaypandey06@gmail.com]]>
              </value>
            </param>
            <param index="1">
              <value>
                <![CDATA[helloworld]]>
              </value>
            </param>
          </params>
          <reporter-output>
          </reporter-output>
        </test-method> <!-- validateLoginPage -->
        <test-method status="PASS" signature="validateLoginPage(java.lang.String,java.lang.String)[pri:0, instance:tests.LoginPageTest@41e36e46]" name="validateLoginPage" duration-ms="2393" started-at="2021-07-23T03:03:40 IST" data-provider="getData" finished-at="2021-07-23T03:03:43 IST">
          <params>
            <param index="0">
              <value>
                <![CDATA[asswhole@gmail.com]]>
              </value>
            </param>
            <param index="1">
              <value>
                <![CDATA[helloworld]]>
              </value>
            </param>
          </params>
          <reporter-output>
          </reporter-output>
        </test-method> <!-- validateLoginPage -->
        <test-method status="PASS" signature="tearDown()[pri:0, instance:tests.LoginPageTest@41e36e46]" name="tearDown" is-config="true" duration-ms="811" started-at="2021-07-23T03:03:43 IST" finished-at="2021-07-23T03:03:44 IST">
          <reporter-output>
          </reporter-output>
        </test-method> <!-- tearDown -->
      </class> <!-- tests.LoginPageTest -->
    </test> <!-- Test1 -->
  </suite> <!-- Suite -->
</testng-results>
